simulation/qsim/FlipFlop.msim.vcd
$comment
	File created using the following command:
		vcd file FlipFlop.msim.vcd -direction
$end
$date
	Fri Sep 28 12:08:37 2018
$end
$version
	ModelSim Version 10.1d
$end
$timescale
	1ps
$end
$scope module FlipFlop_vlg_vec_tst $end
$var reg 1 ! Clock $end
$var reg 1 " D $end
$var wire 1 # Q $end
$var wire 1 $ sampler $end
$scope module i1 $end
$var wire 1 % gnd $end
$var wire 1 & vcc $end
$var wire 1 ' unknown $end
$var tri1 1 ( devclrn $end
$var tri1 1 ) devpor $end
$var tri1 1 * devoe $end
$var wire 1 + D~combout $end
$var wire 1 , Clock~combout $end
$var wire 1 - Q~0_combout $end
$upscope $end
$upscope $end
$enddefinitions $end
#0
$dumpvars
0!
0"
1#
x$
0%
1&
x'
1(
1)
1*
0+
0,
0-
$end
#10000
1!
1,
0$
1-
0#
#20000
1"
0!
1+
0,
1$
#30000
1!
1,
0$
0-
1#
#40000
0"
0!
0+
0,
1$
#50000
1!
1,
0$
1-
0#
#60000
1"
0!
1+
0,
1$
#70000
1!
1,
0$
0-
1#
#80000
0"
0!
0+
0,
1$
#90000
1!
1,
0$
1-
0#
#100000
1"
0!
1+
0,
1$
#110000
1!
1,
0$
0-
1#
#120000
0"
0!
0+
0,
1$
#130000
1!
1,
0$
1-
0#
#140000
1"
0!
1+
0,
1$
#150000
1!
1,
0$
0-
1#
#160000
0"
0!
0+
0,
1$
#170000
1!
1,
0$
1-
0#
#180000
1"
0!
1+
0,
1$
#190000
1!
1,
0$
0-
1#
#200000
0"
0!
0+
0,
1$
#210000
1!
1,
0$
1-
0#
#220000
1"
0!
1+
0,
1$
#230000
1!
1,
0$
0-
1#
#240000
0"
0!
0+
0,
1$
#250000
1!
1,
0$
1-
0#
#260000
1"
0!
1+
0,
1$
#270000
1!
1,
0$
0-
1#
#280000
0"
0!
0+
0,
1$
#290000
1!
1,
0$
1-
0#
#300000
1"
0!
1+
0,
1$
#310000
1!
1,
0$
0-
1#
#320000
0"
0!
0+
0,
1$
#330000
1!
1,
0$
1-
0#
#340000
1"
0!
1+
0,
1$
#350000
1!
1,
0$
0-
1#
#360000
0"
0!
0+
0,
1$
#370000
1!
1,
0$
1-
0#
#380000
1"
0!
1+
0,
1$
#390000
1!
1,
0$
0-
1#
#400000
0"
0!
0+
0,
1$
#410000
1!
1,
0$
1-
0#
#420000
1"
0!
1+
0,
1$
#430000
1!
1,
0$
0-
1#
#440000
0"
0!
0+
0,
1$
#450000
1!
1,
0$
1-
0#
#460000
1"
0!
1+
0,
1$
#470000
1!
1,
0$
0-
1#
#480000
0"
0!
0+
0,
1$
#490000
1!
1,
0$
1-
0#
#500000
1"
0!
1+
0,
1$
#510000
1!
1,
0$
0-
1#
#520000
0"
0!
0+
0,
1$
#530000
1!
1,
0$
1-
0#
#540000
1"
0!
1+
0,
1$
#550000
1!
1,
0$
0-
1#
#560000
0"
0!
0+
0,
1$
#570000
1!
1,
0$
1-
0#
#580000
1"
0!
1+
0,
1$
#590000
1!
1,
0$
0-
1#
#600000
0"
0!
0+
0,
1$
#610000
1!
1,
0$
1-
0#
#620000
1"
0!
1+
0,
1$
#630000
1!
1,
0$
0-
1#
#640000
0"
0!
0+
0,
1$
#650000
1!
1,
0$
1-
0#
#660000
1"
0!
1+
0,
1$
#670000
1!
1,
0$
0-
1#
#680000
0"
0!
0+
0,
1$
#690000
1!
1,
0$
1-
0#
#700000
1"
0!
1+
0,
1$
#710000
1!
1,
0$
0-
1#
#720000
0"
0!
0+
0,
1$
#730000
1!
1,
0$
1-
0#
#740000
1"
0!
1+
0,
1$
#750000
1!
1,
0$
0-
1#
#760000
0"
0!
0+
0,
1$
#770000
1!
1,
0$
1-
0#
#780000
1"
0!
1+
0,
1$
#790000
1!
1,
0$
0-
1#
#800000
0"
0!
0+
0,
1$
#810000
1!
1,
0$
1-
0#
#820000
1"
0!
1+
0,
1$
#830000
1!
1,
0$
0-
1#
#840000
0"
0!
0+
0,
1$
#850000
1!
1,
0$
1-
0#
#860000
1"
0!
1+
0,
1$
#870000
1!
1,
0$
0-
1#
#880000
0"
0!
0+
0,
1$
#890000
1!
1,
0$
1-
0#
#900000
1"
0!
1+
0,
1$
#910000
1!
1,
0$
0-
1#
#920000
0"
0!
0+
0,
1$
#930000
1!
1,
0$
1-
0#
#940000
1"
0!
1+
0,
1$
#950000
1!
1,
0$
0-
1#
#960000
0"
0!
0+
0,
1$
#970000
1!
1,
0$
1-
0#
#980000
1"
0!
1+
0,
1$
#990000
1!
1,
0$
0-
1#
